<?xml version="1.0" encoding="UTF-8" standalone="no"?>
<!-- Created with Inkscape (http://www.inkscape.org/) -->

<svg
   width="148mm"
   height="105mm"
   viewBox="0 0 148 105"
   version="1.1"
   id="svg5"
   inkscape:version="1.1.2 (0a00cf5339, 2022-02-04)"
   sodipodi:docname="Heavy_Missiles.svg"
   inkscape:export-filename="/home/sam/rpg/rampant/dragons/heavy_riders.png"
   inkscape:export-xdpi="300.01099"
   inkscape:export-ydpi="300.01099"
   xmlns:inkscape="http://www.inkscape.org/namespaces/inkscape"
   xmlns:sodipodi="http://sodipodi.sourceforge.net/DTD/sodipodi-0.dtd"
   xmlns="http://www.w3.org/2000/svg"
   xmlns:svg="http://www.w3.org/2000/svg">
  <sodipodi:namedview
     id="namedview7"
     pagecolor="#ffffff"
     bordercolor="#666666"
     borderopacity="1.0"
     inkscape:pageshadow="2"
     inkscape:pageopacity="0.0"
     inkscape:pagecheckerboard="0"
     inkscape:document-units="mm"
     showgrid="true"
     inkscape:zoom="2.3589786"
     inkscape:cx="357.78197"
     inkscape:cy="241.63"
     inkscape:window-width="2560"
     inkscape:window-height="1343"
     inkscape:window-x="1200"
     inkscape:window-y="240"
     inkscape:window-maximized="1"
     inkscape:current-layer="layer3"
     inkscape:snap-smooth-nodes="true"
     inkscape:snap-text-baseline="true">
    <inkscape:grid
       type="xygrid"
       id="grid844"
       units="mm"
       spacingx="1"
       spacingy="1" />
  </sodipodi:namedview>
  <defs
     id="defs2" />
  <g
     inkscape:label="Card"
     inkscape:groupmode="layer"
     id="layer1"
     style="display:inline"
     sodipodi:insensitive="true">
    <rect
       style="fill:#ffffff;fill-opacity:0.995733;stroke:#0000ff;stroke-width:8;stroke-linecap:round;stroke-linejoin:round;stroke-miterlimit:4;stroke-dasharray:none;stroke-opacity:0.999962;stop-color:#000000"
       id="rect868"
       width="148"
       height="105"
       x="-2.077193e-07"
       y="1.0500001e-07"
       ry="5.0000005"
       rx="4.9999995" />
  </g>
  <g
     inkscape:groupmode="layer"
     id="layer2"
     inkscape:label="Cells"
     style="display:inline"
     sodipodi:insensitive="true">
    <text
       xml:space="preserve"
       style="font-style:normal;font-variant:normal;font-weight:normal;font-stretch:normal;font-size:4.93889px;line-height:1.25;font-family:Piedra;-inkscape-font-specification:Piedra;font-variant-ligatures:none;stroke-width:0.264583"
       x="120.85495"
       y="25"
       id="text2709-5"><tspan
         sodipodi:role="line"
         id="tspan2707-4"
         style="font-style:normal;font-variant:normal;font-weight:normal;font-stretch:normal;font-size:4.93889px;font-family:Piedra;-inkscape-font-specification:Piedra;stroke-width:0.264583"
         x="120.85495"
         y="25">Points</tspan></text>
    <text
       xml:space="preserve"
       style="font-style:normal;font-variant:normal;font-weight:normal;font-stretch:normal;font-size:4.93889px;line-height:1.25;font-family:Piedra;-inkscape-font-specification:Piedra;font-variant-ligatures:none;display:inline;stroke-width:0.264583"
       x="118.05674"
       y="46"
       id="text2709-5-4"><tspan
         sodipodi:role="line"
         id="tspan2707-4-7"
         style="font-style:normal;font-variant:normal;font-weight:normal;font-stretch:normal;font-size:4.93889px;font-family:Piedra;-inkscape-font-specification:Piedra;stroke-width:0.264583"
         x="118.05674"
         y="46">Strength</tspan></text>
    <text
       xml:space="preserve"
       style="font-style:normal;font-variant:normal;font-weight:normal;font-stretch:normal;font-size:4.93889px;line-height:1.25;font-family:Piedra;-inkscape-font-specification:Piedra;font-variant-ligatures:none;display:inline;stroke-width:0.264583"
       x="118.86317"
       y="69"
       id="text2709-5-8"><tspan
         sodipodi:role="line"
         id="tspan2707-4-4"
         style="font-style:normal;font-variant:normal;font-weight:normal;font-stretch:normal;font-size:4.93889px;font-family:Piedra;-inkscape-font-specification:Piedra;stroke-width:0.264583"
         x="118.86317"
         y="69">Armour</tspan></text>
    <text
       xml:space="preserve"
       style="font-size:4.9389px;line-height:1.25;font-family:Roboto;-inkscape-font-specification:Roboto;font-variant-ligatures:none;stroke-width:0.264583"
       x="90"
       y="65"
       id="text14035"><tspan
         sodipodi:role="line"
         id="tspan14033"
         style="stroke-width:0.264583"
         x="90"
         y="65" /></text>
    <text
       xml:space="preserve"
       style="font-style:normal;font-variant:normal;font-weight:normal;font-stretch:normal;font-size:6.35px;line-height:1.25;font-family:Piedra;-inkscape-font-specification:Piedra;font-variant-ligatures:none;stroke-width:0.264583"
       x="10"
       y="30"
       id="text2709-28"><tspan
         sodipodi:role="line"
         id="tspan2707-9"
         style="font-style:normal;font-variant:normal;font-weight:normal;font-stretch:normal;font-size:6.35px;font-family:Piedra;-inkscape-font-specification:Piedra;stroke-width:0.264583"
         x="10"
         y="30">Attack</tspan></text>
    <rect
       style="fill:#ffffff;fill-opacity:0.995733;stroke:#000000;stroke-width:1;stroke-linecap:round;stroke-linejoin:round;stroke-miterlimit:4;stroke-dasharray:none;stroke-opacity:0.999962;stop-color:#000000"
       id="rect22065"
       width="100"
       height="10"
       x="10"
       y="10"
       rx="5"
       ry="4.99999" />
    <rect
       style="display:inline;fill:#ffffff;fill-opacity:0.995733;stroke:#000000;stroke-width:0.999999;stroke-linecap:round;stroke-linejoin:round;stroke-miterlimit:4;stroke-dasharray:none;stroke-opacity:0.999962;stop-color:#000000"
       id="rect27227-9"
       width="12.5"
       height="7.5"
       x="37.5"
       y="25"
       rx="2.5"
       ry="2.5" />
    <rect
       style="display:inline;fill:#ffffff;fill-opacity:0.995733;stroke:#000000;stroke-width:0.999999;stroke-linecap:round;stroke-linejoin:round;stroke-miterlimit:4;stroke-dasharray:none;stroke-opacity:0.999962;stop-color:#000000"
       id="rect27227-9-1"
       width="12.5"
       height="7.5"
       x="37.5"
       y="35"
       rx="2.5"
       ry="2.5" />
    <rect
       style="display:inline;fill:#ffffff;fill-opacity:0.995733;stroke:#000000;stroke-width:0.999999;stroke-linecap:round;stroke-linejoin:round;stroke-miterlimit:4;stroke-dasharray:none;stroke-opacity:0.999962;stop-color:#000000"
       id="rect27227-9-2"
       width="12.5"
       height="7.5"
       x="37.5"
       y="45"
       rx="2.5"
       ry="2.5" />
    <rect
       style="display:inline;fill:#ffffff;fill-opacity:0.995733;stroke:#000000;stroke-width:0.999999;stroke-linecap:round;stroke-linejoin:round;stroke-miterlimit:4;stroke-dasharray:none;stroke-opacity:0.999962;stop-color:#000000"
       id="rect27227-9-7"
       width="12.5"
       height="7.5"
       x="37.5"
       y="55"
       rx="2.5"
       ry="2.5" />
    <rect
       style="fill:#ffffff;fill-opacity:0.995733;stroke:#000000;stroke-width:0.999999;stroke-linecap:round;stroke-linejoin:round;stroke-miterlimit:4;stroke-dasharray:none;stroke-opacity:0.999962;stop-color:#000000"
       id="rect27227-6"
       width="17.5"
       height="10"
       x="117.88343"
       y="10"
       rx="2.5"
       ry="2.5" />
    <text
       xml:space="preserve"
       style="font-style:normal;font-variant:normal;font-weight:normal;font-stretch:normal;font-size:6.35px;line-height:1.25;font-family:Piedra;-inkscape-font-specification:Piedra;font-variant-ligatures:none;display:inline;stroke-width:0.264583"
       x="10"
       y="40"
       id="text2709-28-3"><tspan
         sodipodi:role="line"
         id="tspan2707-9-6"
         style="font-style:normal;font-variant:normal;font-weight:normal;font-stretch:normal;font-size:6.35px;font-family:Piedra;-inkscape-font-specification:Piedra;stroke-width:0.264583"
         x="10"
         y="40">Move</tspan></text>
    <text
       xml:space="preserve"
       style="font-style:normal;font-variant:normal;font-weight:normal;font-stretch:normal;font-size:6.35px;line-height:1.25;font-family:Piedra;-inkscape-font-specification:Piedra;font-variant-ligatures:none;display:inline;stroke-width:0.264583"
       x="10"
       y="50"
       id="text2709-28-7"><tspan
         sodipodi:role="line"
         id="tspan2707-9-5"
         style="font-style:normal;font-variant:normal;font-weight:normal;font-stretch:normal;font-size:6.35px;font-family:Piedra;-inkscape-font-specification:Piedra;stroke-width:0.264583"
         x="10"
         y="50">Shoot</tspan></text>
    <text
       xml:space="preserve"
       style="font-style:normal;font-variant:normal;font-weight:normal;font-stretch:normal;font-size:6.35px;line-height:1.25;font-family:Piedra;-inkscape-font-specification:Piedra;font-variant-ligatures:none;display:inline;stroke-width:0.264583"
       x="10"
       y="60"
       id="text2709-28-35"><tspan
         sodipodi:role="line"
         id="tspan2707-9-62"
         style="font-style:normal;font-variant:normal;font-weight:normal;font-stretch:normal;font-size:6.35px;font-family:Piedra;-inkscape-font-specification:Piedra;stroke-width:0.264583"
         x="10"
         y="60">Courage</tspan></text>
    <path
       style="fill:#ffffff;fill-opacity:0.999829;stroke:#000000;stroke-width:1.05833;stroke-linecap:round;stroke-linejoin:round;stroke-dashoffset:16.4;stroke-opacity:0.999519;stop-color:#000000"
       d="m 119.63343,50 h 14 c 0,5 0,9 -7,14 -7,-5 -7,-9 -7,-14 z"
       id="path42946"
       sodipodi:nodetypes="cccc" />
    <rect
       style="fill:#ffffff;fill-opacity:0.999829;stroke:#000000;stroke-width:1.05833;stroke-linecap:round;stroke-linejoin:round;stroke-dashoffset:16.4;stroke-opacity:0.999519;stop-color:#000000"
       id="rect44956"
       width="14"
       height="14"
       x="119.63343"
       y="28"
       rx="20.000013"
       ry="14" />
    <text
       xml:space="preserve"
       style="font-style:normal;font-variant:normal;font-weight:normal;font-stretch:normal;font-size:6.35px;line-height:1.25;font-family:Piedra;-inkscape-font-specification:Piedra;font-variant-ligatures:none;display:inline;stroke-width:0.264583"
       x="55"
       y="30"
       id="text2709-28-8"><tspan
         sodipodi:role="line"
         id="tspan2707-9-7"
         style="font-style:normal;font-variant:normal;font-weight:normal;font-stretch:normal;font-size:6.35px;font-family:Piedra;-inkscape-font-specification:Piedra;stroke-width:0.264583"
         x="55"
         y="30">Attack Value</tspan></text>
    <rect
       style="display:inline;fill:#ffffff;fill-opacity:0.995733;stroke:#000000;stroke-width:0.999999;stroke-linecap:round;stroke-linejoin:round;stroke-miterlimit:4;stroke-dasharray:none;stroke-opacity:0.999962;stop-color:#000000"
       id="rect27227-9-9"
       width="12.5"
       height="7.5"
       x="97"
       y="24.5"
       rx="2.5"
       ry="2.5" />
    <rect
       style="display:inline;fill:#ffffff;fill-opacity:0.995733;stroke:#000000;stroke-width:0.999999;stroke-linecap:round;stroke-linejoin:round;stroke-miterlimit:4;stroke-dasharray:none;stroke-opacity:0.999962;stop-color:#000000"
       id="rect27227-9-1-2"
       width="12.5"
       height="7.5"
       x="97"
       y="34.5"
       rx="2.5"
       ry="2.5" />
    <rect
       style="display:inline;fill:#ffffff;fill-opacity:0.995733;stroke:#000000;stroke-width:0.999997;stroke-linecap:round;stroke-linejoin:round;stroke-miterlimit:4;stroke-dasharray:none;stroke-opacity:0.999962;stop-color:#000000"
       id="rect27227-9-2-0"
       width="22"
       height="7.5"
       x="88"
       y="44.5"
       rx="2.5"
       ry="2.5" />
    <rect
       style="display:inline;fill:#ffffff;fill-opacity:0.995733;stroke:#000000;stroke-width:0.999999;stroke-linecap:round;stroke-linejoin:round;stroke-miterlimit:4;stroke-dasharray:none;stroke-opacity:0.999962;stop-color:#000000"
       id="rect27227-9-7-2"
       width="12.5"
       height="7.5"
       x="97.5"
       y="54.5"
       rx="2.5"
       ry="2.5" />
    <text
       xml:space="preserve"
       style="font-style:normal;font-variant:normal;font-weight:normal;font-stretch:normal;font-size:6.35px;line-height:1.25;font-family:Piedra;-inkscape-font-specification:Piedra;font-variant-ligatures:none;display:inline;stroke-width:0.264583"
       x="55"
       y="40"
       id="text2709-28-3-3"><tspan
         sodipodi:role="line"
         id="tspan2707-9-6-7"
         style="font-style:normal;font-variant:normal;font-weight:normal;font-stretch:normal;font-size:6.35px;font-family:Piedra;-inkscape-font-specification:Piedra;stroke-width:0.264583"
         x="55"
         y="40">Defence Value</tspan></text>
    <text
       xml:space="preserve"
       style="font-style:normal;font-variant:normal;font-weight:normal;font-stretch:normal;font-size:6.35px;line-height:1.25;font-family:Piedra;-inkscape-font-specification:Piedra;font-variant-ligatures:none;display:inline;stroke-width:0.264583"
       x="55"
       y="50"
       id="text2709-28-7-5"><tspan
         sodipodi:role="line"
         id="tspan2707-9-5-9"
         style="font-style:normal;font-variant:normal;font-weight:normal;font-stretch:normal;font-size:6.35px;font-family:Piedra;-inkscape-font-specification:Piedra;stroke-width:0.264583"
         x="55"
         y="50">Shoot Value</tspan></text>
    <text
       xml:space="preserve"
       style="font-style:normal;font-variant:normal;font-weight:normal;font-stretch:normal;font-size:6.35px;line-height:1.25;font-family:Piedra;-inkscape-font-specification:Piedra;font-variant-ligatures:none;display:inline;stroke-width:0.264583"
       x="55"
       y="60"
       id="text2709-28-35-2"><tspan
         sodipodi:role="line"
         id="tspan2707-9-62-2"
         style="font-style:normal;font-variant:normal;font-weight:normal;font-stretch:normal;font-size:6.35px;font-family:Piedra;-inkscape-font-specification:Piedra;stroke-width:0.264583"
         x="55"
         y="60">Movement</tspan></text>
  </g>
  <g
     inkscape:groupmode="layer"
     id="layer3"
     inkscape:label="Values"
     style="display:inline">
    <text
       xml:space="preserve"
       style="font-style:normal;font-variant:normal;font-weight:bold;font-stretch:normal;font-size:6.35px;line-height:1.25;font-family:Kalam;-inkscape-font-specification:'Kalam, Bold';font-variant-ligatures:none;font-variant-caps:normal;font-variant-numeric:normal;font-variant-east-asian:normal;stroke-width:0.264583"
       x="15"
       y="17.5"
       id="text33568"><tspan
         sodipodi:role="line"
         id="tspan33566"
         style="font-style:normal;font-variant:normal;font-weight:bold;font-stretch:normal;font-size:6.35px;font-family:Kalam;-inkscape-font-specification:'Kalam, Bold';font-variant-ligatures:none;font-variant-caps:normal;font-variant-numeric:normal;font-variant-east-asian:normal;fill:#808080;stroke-width:0.264583"
         x="15"
         y="17.5">Heavy Missiles - Crossbows</tspan></text>
    <text
       xml:space="preserve"
       style="font-style:normal;font-variant:normal;font-weight:normal;font-stretch:normal;font-size:6.92727px;line-height:1.25;font-family:Kalam;-inkscape-font-specification:'Kalam, Normal';font-variant-ligatures:none;font-variant-caps:normal;font-variant-numeric:normal;font-variant-east-asian:normal;fill:#808080;stroke-width:0.264583"
       x="124"
       y="18"
       id="text70010"><tspan
         sodipodi:role="line"
         id="tspan70008"
         style="font-style:normal;font-variant:normal;font-weight:normal;font-stretch:normal;font-size:6.92727px;font-family:Kalam;-inkscape-font-specification:'Kalam, Normal';font-variant-ligatures:none;font-variant-caps:normal;font-variant-numeric:normal;font-variant-east-asian:normal;fill:#808080;stroke-width:0.264583"
         x="124"
         y="18">4</tspan></text>
    <text
       xml:space="preserve"
       style="font-style:normal;font-variant:normal;font-weight:normal;font-stretch:normal;font-size:6.92727px;line-height:1.25;font-family:Kalam;-inkscape-font-specification:'Kalam, Normal';font-variant-ligatures:none;font-variant-caps:normal;font-variant-numeric:normal;font-variant-east-asian:normal;display:inline;fill:#808080;stroke-width:0.264583"
       x="40"
       y="31"
       id="text70010-0"><tspan
         sodipodi:role="line"
         id="tspan70008-9"
         style="font-style:normal;font-variant:normal;font-weight:normal;font-stretch:normal;font-size:6.92727px;font-family:Kalam;-inkscape-font-specification:'Kalam, Normal';font-variant-ligatures:none;font-variant-caps:normal;font-variant-numeric:normal;font-variant-east-asian:normal;fill:#808080;stroke-width:0.264583"
         x="40"
         y="31">7+</tspan></text>
    <text
       xml:space="preserve"
       style="font-style:normal;font-variant:normal;font-weight:normal;font-stretch:normal;font-size:6.92727px;line-height:1.25;font-family:Kalam;-inkscape-font-specification:'Kalam, Normal';font-variant-ligatures:none;font-variant-caps:normal;font-variant-numeric:normal;font-variant-east-asian:normal;display:inline;fill:#808080;stroke-width:0.264583"
       x="40"
       y="41"
       id="text70010-0-3"><tspan
         sodipodi:role="line"
         id="tspan70008-9-6"
         style="font-style:normal;font-variant:normal;font-weight:normal;font-stretch:normal;font-size:6.92727px;font-family:Kalam;-inkscape-font-specification:'Kalam, Normal';font-variant-ligatures:none;font-variant-caps:normal;font-variant-numeric:normal;font-variant-east-asian:normal;fill:#808080;stroke-width:0.264583"
         x="40"
         y="41">6+</tspan></text>
    <text
       xml:space="preserve"
       style="font-style:normal;font-variant:normal;font-weight:normal;font-stretch:normal;font-size:6.92727px;line-height:1.25;font-family:Kalam;-inkscape-font-specification:'Kalam, Normal';font-variant-ligatures:none;font-variant-caps:normal;font-variant-numeric:normal;font-variant-east-asian:normal;display:inline;fill:#808080;stroke-width:0.264583"
       x="40"
       y="51"
       id="text70010-0-0"><tspan
         sodipodi:role="line"
         id="tspan70008-9-62"
         style="font-style:normal;font-variant:normal;font-weight:normal;font-stretch:normal;font-size:6.92727px;font-family:Kalam;-inkscape-font-specification:'Kalam, Normal';font-variant-ligatures:none;font-variant-caps:normal;font-variant-numeric:normal;font-variant-east-asian:normal;fill:#808080;stroke-width:0.264583"
         x="40"
         y="51">7+</tspan></text>
    <text
       xml:space="preserve"
       style="font-style:normal;font-variant:normal;font-weight:normal;font-stretch:normal;font-size:6.92727px;line-height:1.25;font-family:Kalam;-inkscape-font-specification:'Kalam, Normal';font-variant-ligatures:none;font-variant-caps:normal;font-variant-numeric:normal;font-variant-east-asian:normal;display:inline;fill:#808080;stroke-width:0.264583"
       x="40"
       y="61"
       id="text70010-0-6"><tspan
         sodipodi:role="line"
         id="tspan70008-9-1"
         style="font-style:normal;font-variant:normal;font-weight:normal;font-stretch:normal;font-size:6.92727px;font-family:Kalam;-inkscape-font-specification:'Kalam, Normal';font-variant-ligatures:none;font-variant-caps:normal;font-variant-numeric:normal;font-variant-east-asian:normal;fill:#808080;stroke-width:0.264583"
         x="40"
         y="61">4+</tspan></text>
    <text
       xml:space="preserve"
       style="font-style:normal;font-variant:normal;font-weight:normal;font-stretch:normal;font-size:6.92727px;line-height:1.25;font-family:Kalam;-inkscape-font-specification:'Kalam, Normal';font-variant-ligatures:none;font-variant-caps:normal;font-variant-numeric:normal;font-variant-east-asian:normal;display:inline;fill:#808080;stroke-width:0.264583"
       x="99"
       y="31"
       id="text70010-0-8"><tspan
         sodipodi:role="line"
         id="tspan70008-9-9"
         style="font-style:normal;font-variant:normal;font-weight:normal;font-stretch:normal;font-size:6.92727px;font-family:Kalam;-inkscape-font-specification:'Kalam, Normal';font-variant-ligatures:none;font-variant-caps:normal;font-variant-numeric:normal;font-variant-east-asian:normal;fill:#808080;stroke-width:0.264583"
         x="99"
         y="31">6+</tspan></text>
    <text
       xml:space="preserve"
       style="font-style:normal;font-variant:normal;font-weight:normal;font-stretch:normal;font-size:6.92727px;line-height:1.25;font-family:Kalam;-inkscape-font-specification:'Kalam, Normal';font-variant-ligatures:none;font-variant-caps:normal;font-variant-numeric:normal;font-variant-east-asian:normal;display:inline;fill:#808080;stroke-width:0.264583"
       x="99"
       y="41"
       id="text70010-0-3-7"><tspan
         sodipodi:role="line"
         id="tspan70008-9-6-3"
         style="font-style:normal;font-variant:normal;font-weight:normal;font-stretch:normal;font-size:6.92727px;font-family:Kalam;-inkscape-font-specification:'Kalam, Normal';font-variant-ligatures:none;font-variant-caps:normal;font-variant-numeric:normal;font-variant-east-asian:normal;fill:#808080;stroke-width:0.264583"
         x="99"
         y="41">5+</tspan></text>
    <text
       xml:space="preserve"
       style="font-style:normal;font-variant:normal;font-weight:normal;font-stretch:normal;font-size:6.92727px;line-height:1.25;font-family:Kalam;-inkscape-font-specification:'Kalam, Normal';font-variant-ligatures:none;font-variant-caps:normal;font-variant-numeric:normal;font-variant-east-asian:normal;display:inline;fill:#808080;stroke-width:0.264583"
       x="90"
       y="51"
       id="text70010-0-0-6"><tspan
         sodipodi:role="line"
         id="tspan70008-9-62-1"
         style="font-style:normal;font-variant:normal;font-weight:normal;font-stretch:normal;font-size:6.92727px;font-family:Kalam;-inkscape-font-specification:'Kalam, Normal';font-variant-ligatures:none;font-variant-caps:normal;font-variant-numeric:normal;font-variant-east-asian:normal;fill:#808080;stroke-width:0.264583"
         x="90"
         y="51">4+/18&quot;</tspan></text>
    <text
       xml:space="preserve"
       style="font-style:normal;font-variant:normal;font-weight:normal;font-stretch:normal;font-size:6.92727px;line-height:1.25;font-family:Kalam;-inkscape-font-specification:'Kalam, Normal';font-variant-ligatures:none;font-variant-caps:normal;font-variant-numeric:normal;font-variant-east-asian:normal;display:inline;fill:#808080;stroke-width:0.264583"
       x="101"
       y="61"
       id="text70010-0-6-2"><tspan
         sodipodi:role="line"
         id="tspan70008-9-1-9"
         style="font-style:normal;font-variant:normal;font-weight:normal;font-stretch:normal;font-size:6.92727px;font-family:Kalam;-inkscape-font-specification:'Kalam, Normal';font-variant-ligatures:none;font-variant-caps:normal;font-variant-numeric:normal;font-variant-east-asian:normal;fill:#808080;stroke-width:0.264583"
         x="101"
         y="61">6&quot;</tspan></text>
    <text
       xml:space="preserve"
       style="font-size:4.9389px;line-height:1.25;font-family:Roboto;-inkscape-font-specification:Roboto;font-variant-ligatures:none;stroke-width:0.264583"
       x="125"
       y="59"
       id="text17513"><tspan
         sodipodi:role="line"
         id="tspan17511"
         style="stroke-width:0.264583"
         x="125"
         y="59" /></text>
    <text
       xml:space="preserve"
       style="font-style:normal;font-variant:normal;font-weight:normal;font-stretch:normal;font-size:4.23333px;line-height:1.25;font-family:Kalam;-inkscape-font-specification:Kalam;font-variant-ligatures:none;fill:#000002;fill-opacity:1;stroke-width:0.264583"
       x="11"
       y="69"
       id="text12809"><tspan
         sodipodi:role="line"
         style="font-style:normal;font-variant:normal;font-weight:normal;font-stretch:normal;font-size:4.23333px;font-family:Kalam;-inkscape-font-specification:Kalam;fill:#000002;fill-opacity:1;stroke-width:0.264583"
         x="11"
         y="69"
         id="tspan58839" /><tspan
         sodipodi:role="line"
         style="font-style:normal;font-variant:normal;font-weight:normal;font-stretch:normal;font-size:4.23333px;font-family:Kalam;-inkscape-font-specification:Kalam;fill:#000002;fill-opacity:1;stroke-width:0.264583"
         x="11"
         y="74.291664"
         id="tspan58843">None.</tspan></text>
    <text
       xml:space="preserve"
       style="font-style:normal;font-variant:normal;font-weight:normal;font-stretch:normal;font-size:6.92727px;line-height:1.25;font-family:Kalam;-inkscape-font-specification:'Kalam, Normal';font-variant-ligatures:none;font-variant-caps:normal;font-variant-numeric:normal;font-variant-east-asian:normal;display:inline;fill:#808080;stroke-width:0.264583"
       x="124.34003"
       y="59"
       id="text70010-0-8-3"><tspan
         sodipodi:role="line"
         id="tspan70008-9-9-6"
         style="font-style:normal;font-variant:normal;font-weight:normal;font-stretch:normal;font-size:6.92727px;font-family:Kalam;-inkscape-font-specification:'Kalam, Normal';font-variant-ligatures:none;font-variant-caps:normal;font-variant-numeric:normal;font-variant-east-asian:normal;fill:#808080;stroke-width:0.264583"
         x="124.34003"
         y="59">2</tspan></text>
    <text
       xml:space="preserve"
       style="font-style:normal;font-variant:normal;font-weight:normal;font-stretch:normal;font-size:6.92727px;line-height:1.25;font-family:Kalam;-inkscape-font-specification:'Kalam, Normal';font-variant-ligatures:none;font-variant-caps:normal;font-variant-numeric:normal;font-variant-east-asian:normal;display:inline;fill:#808080;stroke-width:0.264583"
       x="124"
       y="38"
       id="text70010-0-8-5"><tspan
         sodipodi:role="line"
         id="tspan70008-9-9-0"
         style="font-style:normal;font-variant:normal;font-weight:normal;font-stretch:normal;font-size:6.92727px;font-family:Kalam;-inkscape-font-specification:'Kalam, Normal';font-variant-ligatures:none;font-variant-caps:normal;font-variant-numeric:normal;font-variant-east-asian:normal;fill:#808080;stroke-width:0.264583"
         x="124"
         y="38">12</tspan></text>
  </g>
</svg>
